{
    "news":[
            {
            "news_id" : 1,
            "title":"Star Scales Pro",
            "appstore_id":303486854,
            "image_link":"/images/starscalespro.jpg",
            "web_link":"/starscales/",
            "obsolete":false
            },
            {
            "news_id" : 2,
            "title":"Star Scales HD",
            "appstore_id":578144539,
            "image_link":"/images/starscaleshd.jpg",
            "web_link":"/starscales/",
            "obsolete":false
            },
            {
            "news_id" : 3,
            "title":"Star Scales Lite",
            "appstore_id":307317922,
            "image_link":"/images/starscaleslite.jpg",
            "web_link":"/domind/",
            "obsolete":true
            },
            {
            "news_id" : 4,
            "title":"doMind EN",
            "appstore_id":931946288,
            "image_link":"/images/dominden.jpg",
            "web_link":"/domind/",
            "obsolete":true
            },
            {
            "news_id" : 5,
            "title":"doMind DE",
            "appstore_id":943894402,
            "image_link":"/images/domindde.jpg",
            "web_link":"/domind/",
            "obsolete":true
            },
            {
            "news_id" : 6,
            "title":"doMind ES",
            "appstore_id":945405520,
            "image_link":"/images/domindes.jpg",
            "web_link":"/domind/",
            "obsolete":true
            },
            {
            "news_id" : 7,
            "title":"doMind IT",
            "appstore_id":952305610,
            "image_link":"/images/domindit.jpg",
            "web_link":"/domind/",
            "obsolete":true
            },
            {
            "news_id" : 9,
            "title":"doMind SK",
            "appstore_id":966280975,
            "image_link":"/images/domindsk.jpg",
            "web_link":"/domind/",
            "obsolete":true
            },
            {
            "news_id" : 10,
            "title":"doMind FR",
            "appstore_id":972445293,
            "image_link":"/images/domindfr.jpg",
            "web_link":"/domind/",
            "obsolete":true
            },
            {
            "news_id" : 11,
            "title":"doMind HU",
            "appstore_id":972445289,
            "image_link":"/images/domindhu.jpg",
            "web_link":"/domind/",
            "obsolete":true
            },
            {
            "news_id" : 12,
            "title":"V Creator MLM",
            "appstore_id":692760906,
            "image_link":"/images/vcreatormlm.jpg",
            "web_link":"/vcreator/",
            "obsolete":true
            }
            ]
}
